Cleaning GBIF data for the use in biogeography
…
dat %>%
    as_tibble() %>% 
    mutate(val = cc_val(., value = "flagged"),
           sea = cc_sea(., value = "flagged"))

## Testing coordinate validity

## Flagged 0 records.

## Testing sea coordinates

## Flagged 20 records.

## # A tibble: 5,000 × 15
##    species   decimallongitude decimallatitude countryCode individualCount gbifID
##    <chr>                <dbl>           <dbl> <chr>                 <int> <chr> 
##  1 Panthera…             38.2           -3.57 KEN                      NA 40151…
##  2 Panthera…             36.8           -1.35 KEN                      NA 40149…
##  3 Panthera…             25.8          -33.3  ZAF                      NA 40152…
##  4 Panthera…             25.0          -18.1  BWA                      NA 40152…
##  5 Panthera…             25.8          -33.4  ZAF                      NA 40151…
##  6 Panthera…             35.9           -3.73 TZA                      NA 40183…
##  7 Panthera…             36.0           -3.70 TZA                      NA 40185…
##  8 Panthera…             36.1           -3.64 TZA                      NA 40181…
##  9 Panthera…             38.6           -3.20 KEN                      NA 40181…
## 10 Panthera…             35.9           -3.71 TZA                      NA 40185…
## # ℹ 4,990 more rows
## # ℹ 9 more variables: family <chr>, taxonRank <chr>,
## #   coordinateUncertaintyInMeters <dbl>, year <int>, basisOfRecord <chr>,
## #   institutionCode <chr>, datasetName <chr>, val <lgl>, sea <lgl>
…
