Quick start - Flagging problematic coordinates in a nutshell • CoordinateCleaner
…
In this way, you can also add the individual test results as columns to your initial data.frame:

exmpl %>% as_tibble() %>% mutate(val = cc_val(., value = "flagged"), sea = cc_sea(.,
    value = "flagged"))
## OGR data source with driver: ESRI Shapefile 
## Source: "C:\Users\az64mycy\AppData\Local\Temp\RtmpMj79dm", layer: "ne_110m_land"
## with 127 features
## It has 3 fields
## # A tibble: 250 x 6
##    species decimallongitude decimallatitude countries val   sea  
##    <chr>              <dbl>           <dbl> <chr>     <lgl> <lgl>
##  1 v                   49.7           -18.6 MDG       TRUE  FALSE
##  2 t                   46.4           -20.6 MDG       TRUE  TRUE 
##  3 d                   45.9           -21.7 MDG       TRUE  TRUE 
##  4 j                   45.8           -16.9 MDG       TRUE  TRUE 
##  5 l                   43.4           -22.8 MDG       TRUE  TRUE 
##  6 l                   44.7           -16.7 MDG       TRUE  TRUE 
##  7 r                   44.2           -18.3 MDG       TRUE  TRUE 
##  8 t                   48.3           -18.3 MDG       TRUE  TRUE 
##  9 q                   48.7           -22.2 MDG       TRUE  FALSE
## 10 f                   46.6           -16.1 MDG       TRUE  TRUE 
## # ... with 240 more rows
…
